[gd_scene load_steps=4 format=2]

[ext_resource path="res://CardSpace.gd" type="Script" id=1]

[sub_resource type="CircleShape2D" id=1]

[sub_resource type="StyleBoxFlat" id=2]
bg_color = Color( 0.552941, 0.403922, 0.282353, 0.235294 )
corner_radius_top_left = 25
corner_radius_top_right = 25
corner_radius_bottom_right = 25
corner_radius_bottom_left = 25

[node name="CardSpace" type="Node2D" groups=["cardspaces"]]
position = Vector2( 67, 284 )
script = ExtResource( 1 )

[node name="Area2D" type="Area2D" parent="."]

[node name="CollisionShape2D" type="CollisionShape2D" parent="Area2D"]
shape = SubResource( 1 )

[node name="Panel" type="Panel" parent="."]
margin_left = -20.0
margin_top = -19.0
margin_right = 20.0
margin_bottom = 21.0
custom_styles/panel = SubResource( 2 )
