[gd_scene load_steps=3 format=2]

[ext_resource path="res://Card/Card.tscn" type="PackedScene" id=1]
[ext_resource path="res://Chest/Chest.gd" type="Script" id=2]

[node name="Card" instance=ExtResource( 1 )]

[node name="Config" type="Node" parent="." index="0"]
script = ExtResource( 2 )
